<define-tag pagetitle>DSA-4996-1 wpewebkit</define-tag>
<define-tag report_date>2021-10-29</define-tag>
<define-tag secrefs>CVE-2021-30846 CVE-2021-30851 CVE-2021-42762</define-tag>
<define-tag packages>wpewebkit</define-tag>
<define-tag isvulnerable>yes</define-tag>
<define-tag fixed>yes</define-tag>
<define-tag fixed-section>no</define-tag>

#use wml::debian::security



</dl>
