<define-tag pagetitle>DSA-4742-1 firejail</define-tag>
<define-tag report_date>2020-8-06</define-tag>
<define-tag secrefs>CVE-2020-17367 CVE-2020-17368</define-tag>
<define-tag packages>firejail</define-tag>
<define-tag isvulnerable>yes</define-tag>
<define-tag fixed>yes</define-tag>
<define-tag fixed-section>no</define-tag>

#use wml::debian::security



</dl>
