<define-tag pagetitle>DSA-4821-1 roundcube</define-tag>
<define-tag report_date>2020-12-28</define-tag>
<define-tag secrefs>CVE-2020-35730 Bug#978491</define-tag>
<define-tag packages>roundcube</define-tag>
<define-tag isvulnerable>yes</define-tag>
<define-tag fixed>yes</define-tag>
<define-tag fixed-section>no</define-tag>

#use wml::debian::security



</dl>
