<define-tag pagetitle>DLA-2850-1 libpcap</define-tag>
<define-tag report_date>2021-12-26</define-tag>
<define-tag secrefs>CVE-2019-15165 Bug#941697</define-tag>
<define-tag packages>libpcap</define-tag>
<define-tag isvulnerable>yes</define-tag>
<define-tag fixed>yes</define-tag>
<define-tag fixed-section>no</define-tag>

#use wml::debian::security

