<define-tag pagetitle>DLA-2783-1 hiredis</define-tag>
<define-tag report_date>2021-10-12</define-tag>
<define-tag secrefs>CVE-2021-32765</define-tag>
<define-tag packages>hiredis</define-tag>
<define-tag isvulnerable>yes</define-tag>
<define-tag fixed>yes</define-tag>
<define-tag fixed-section>no</define-tag>

#use wml::debian::security
