<define-tag pagetitle>DLA-2672-1 imagemagick</define-tag>
<define-tag report_date>2021-06-05</define-tag>
<define-tag secrefs>CVE-2020-27751 CVE-2021-20243 CVE-2021-20245 CVE-2021-20309 CVE-2021-20312 CVE-2021-20313</define-tag>
<define-tag packages>imagemagick</define-tag>
<define-tag isvulnerable>yes</define-tag>
<define-tag fixed>yes</define-tag>
<define-tag fixed-section>no</define-tag>

#use wml::debian::security

