<define-tag pagetitle>DLA-788-1 pdns-recursor</define-tag>
<define-tag report_date>2017-1-16</define-tag>
<define-tag secrefs>CVE-2016-9139</define-tag>
<define-tag packages>pdns-recursor</define-tag>
<define-tag isvulnerable>yes</define-tag>
<define-tag fixed>yes</define-tag>
<define-tag fixed-section>no</define-tag>

#use wml::debian::security

