<define-tag pagetitle>DLA-2470-1 zsh</define-tag>
<define-tag report_date>2020-12-1</define-tag>
<define-tag secrefs>CVE-2017-18206 CVE-2018-0502 CVE-2018-1071 CVE-2018-1083 CVE-2018-1100 CVE-2018-13259 CVE-2019-20044 Bug#908000 Bug#894044 Bug#894043 Bug#895225 Bug#951458</define-tag>
<define-tag packages>zsh</define-tag>
<define-tag isvulnerable>yes</define-tag>
<define-tag fixed>yes</define-tag>
<define-tag fixed-section>no</define-tag>

#use wml::debian::security

