<define-tag pagetitle>DLA-2503-1 node-ini</define-tag>
<define-tag report_date>2020-12-21</define-tag>
<define-tag secrefs>CVE-2020-7788</define-tag>
<define-tag packages>node-ini</define-tag>
<define-tag isvulnerable>yes</define-tag>
<define-tag fixed>yes</define-tag>
<define-tag fixed-section>no</define-tag>

#use wml::debian::security
