<define-tag pagetitle>DLA-2442-1 obfs4proxy</define-tag>
<define-tag report_date>2020-11-10</define-tag>
<define-tag secrefs>CVE-2019-11840</define-tag>
<define-tag packages>obfs4proxy</define-tag>
<define-tag isvulnerable>yes</define-tag>
<define-tag fixed>yes</define-tag>
<define-tag fixed-section>no</define-tag>

#use wml::debian::security

