<define-tag pagetitle>DLA-2146-1 libvncserver</define-tag>
<define-tag report_date>2020-03-18</define-tag>
<define-tag secrefs>CVE-2019-15690 Bug#954163</define-tag>
<define-tag packages>libvncserver</define-tag>
<define-tag isvulnerable>yes</define-tag>
<define-tag fixed>yes</define-tag>
<define-tag fixed-section>no</define-tag>

#use wml::debian::security

