<define-tag pagetitle>DLA-2438-1 raptor2</define-tag>
<define-tag report_date>2020-11-07</define-tag>
<define-tag secrefs>CVE-2017-18926</define-tag>
<define-tag packages>raptor2</define-tag>
<define-tag isvulnerable>yes</define-tag>
<define-tag fixed>yes</define-tag>
<define-tag fixed-section>no</define-tag>

#use wml::debian::security
