<define-tag pagetitle>DLA-2253-1 lynis</define-tag>
<define-tag report_date>2020-06-21</define-tag>
<define-tag secrefs>CVE-2019-13033</define-tag>
<define-tag packages>lynis</define-tag>
<define-tag isvulnerable>yes</define-tag>
<define-tag fixed>yes</define-tag>
<define-tag fixed-section>no</define-tag>

#use wml::debian::security
