<define-tag pagetitle>DLA-1272-1 mailman</define-tag>
<define-tag report_date>2018-2-9</define-tag>
<define-tag secrefs>CVE-2018-5950 Bug#888201</define-tag>
<define-tag packages>mailman</define-tag>
<define-tag isvulnerable>yes</define-tag>
<define-tag fixed>yes</define-tag>
<define-tag fixed-section>no</define-tag>

#use wml::debian::security

