<define-tag pagetitle>DLA-1429-1 sssd</define-tag>
<define-tag report_date>2018-7-16</define-tag>
<define-tag secrefs>CVE-2018-10852 Bug#902860</define-tag>
<define-tag packages>sssd</define-tag>
<define-tag isvulnerable>yes</define-tag>
<define-tag fixed>yes</define-tag>
<define-tag fixed-section>no</define-tag>

#use wml::debian::security

