<define-tag pagetitle>DLA-1344-1 squirrelmail</define-tag>
<define-tag report_date>2018-4-16</define-tag>
<define-tag secrefs>CVE-2018-8741 Bug#893202</define-tag>
<define-tag packages>squirrelmail</define-tag>
<define-tag isvulnerable>yes</define-tag>
<define-tag fixed>yes</define-tag>
<define-tag fixed-section>no</define-tag>

#use wml::debian::security

