<define-tag pagetitle>DLA-1256-1 firefox-esr</define-tag>
<define-tag report_date>2018-1-24</define-tag>
<define-tag secrefs>CVE-2018-5089 CVE-2018-5091 CVE-2018-5095 CVE-2018-5096 CVE-2018-5097 CVE-2018-5098 CVE-2018-5099 CVE-2018-5102 CVE-2018-5103 CVE-2018-5104 CVE-2018-5117</define-tag>
<define-tag packages>firefox-esr</define-tag>
<define-tag isvulnerable>yes</define-tag>
<define-tag fixed>yes</define-tag>
<define-tag fixed-section>no</define-tag>

#use wml::debian::security

