<define-tag pagetitle>DLA-1567-1 gthumb</define-tag>
<define-tag report_date>2018-11-5</define-tag>
<define-tag secrefs>CVE-2018-18718 Bug##912290</define-tag>
<define-tag packages>gthumb</define-tag>
<define-tag isvulnerable>yes</define-tag>
<define-tag fixed>yes</define-tag>
<define-tag fixed-section>no</define-tag>

#use wml::debian::security

