<define-tag pagetitle>DSA-4575-1 chromium</define-tag>
<define-tag report_date>2019-11-24</define-tag>
<define-tag secrefs>CVE-2019-13723 CVE-2019-13724</define-tag>
<define-tag packages>chromium</define-tag>
<define-tag isvulnerable>yes</define-tag>
<define-tag fixed>yes</define-tag>
<define-tag fixed-section>no</define-tag>

#use wml::debian::security



</dl>
