<define-tag pagetitle>DLA-1871-1 vim</define-tag>
<define-tag report_date>2019-8-3</define-tag>
<define-tag secrefs>CVE-2017-11109 CVE-2017-17087 CVE-2019-12735 Bug#867720 Bug#930020</define-tag>
<define-tag packages>vim</define-tag>
<define-tag isvulnerable>yes</define-tag>
<define-tag fixed>yes</define-tag>
<define-tag fixed-section>no</define-tag>

#use wml::debian::security

