<define-tag pagetitle>DLA-1659-1 drupal7</define-tag>
<define-tag report_date>2019-2-2</define-tag>
<define-tag secrefs>CVE-2019-6339</define-tag>
<define-tag packages>drupal7</define-tag>
<define-tag isvulnerable>yes</define-tag>
<define-tag fixed>yes</define-tag>
<define-tag fixed-section>no</define-tag>

#use wml::debian::security

