<define-tag pagetitle>DLA-630-1 zookeeper</define-tag>
<define-tag report_date>2016-9-18</define-tag>
<define-tag secrefs>CVE-2016-5017</define-tag>
<define-tag packages>zookeeper</define-tag>
<define-tag isvulnerable>yes</define-tag>
<define-tag fixed>yes</define-tag>
<define-tag fixed-section>no</define-tag>

#use wml::debian::security

