<define-tag pagetitle>DLA-767-1 curl</define-tag>
<define-tag report_date>2016-12-29</define-tag>
<define-tag secrefs>CVE-2016-9586 Bug#848958</define-tag>
<define-tag packages>curl</define-tag>
<define-tag isvulnerable>yes</define-tag>
<define-tag fixed>yes</define-tag>
<define-tag fixed-section>no</define-tag>

#use wml::debian::security

