<define-tag pagetitle>DLA-697-1 bsdiff</define-tag>
<define-tag report_date>2016-11-3</define-tag>
<define-tag secrefs>CVE-2014-9862</define-tag>
<define-tag packages>bsdiff</define-tag>
<define-tag isvulnerable>yes</define-tag>
<define-tag fixed>yes</define-tag>
<define-tag fixed-section>no</define-tag>

#use wml::debian::security

