<define-tag pagetitle>DLA-751-1 nagios3</define-tag>
<define-tag report_date>2016-12-17</define-tag>
<define-tag secrefs>CVE-2016-9565 CVE-2016-9566</define-tag>
<define-tag packages>nagios3</define-tag>
<define-tag isvulnerable>yes</define-tag>
<define-tag fixed>yes</define-tag>
<define-tag fixed-section>no</define-tag>

#use wml::debian::security

